<?xml version="1.0" standalone="no"?>
<!DOCTYPE svg PUBLIC "-//W3C//DTD SVG 20010904//EN"
 "http://www.w3.org/TR/2001/REC-SVG-20010904/DTD/svg10.dtd">
<svg version="1.0" xmlns="http://www.w3.org/2000/svg"
 width="1084.000000pt" height="1084.000000pt" viewBox="0 0 1084.000000 1084.000000"
 preserveAspectRatio="xMidYMid meet">
<metadata>
Created by potrace 1.11, written by Peter Selinger 2001-2013
</metadata>
<g transform="translate(0.000000,1084.000000) scale(0.100000,-0.100000)"
fill="#000000" stroke="none">
<path d="M763 9305 c0 -844 3 -1536 6 -1536 3 -1 1397 -2 3096 -3 l3090 -1 0
-1420 c0 -781 -4 -1447 -8 -1480 -64 -519 -381 -972 -842 -1203 -156 -78 -262
-114 -430 -147 -140 -27 -421 -27 -545 0 -14 3 -38 8 -55 10 -142 25 -434 151
-550 237 -329 246 -527 525 -624 881 -47 174 -52 249 -53 799 -1 370 -4 518
-12 521 -6 2 -699 3 -1541 3 l-1530 -1 0 -574 c-1 -532 6 -725 30 -901 4 -25
9 -61 11 -80 8 -64 34 -214 55 -310 11 -52 22 -106 25 -120 13 -66 80 -294
128 -437 66 -195 174 -450 250 -593 7 -14 32 -60 55 -103 145 -271 376 -604
586 -847 58 -68 361 -367 440 -436 44 -38 82 -71 85 -75 3 -3 39 -32 80 -64
41 -32 77 -62 80 -65 3 -4 48 -39 100 -78 52 -40 100 -76 105 -80 37 -29 201
-142 310 -213 440 -289 973 -554 1470 -731 122 -44 252 -87 275 -93 8 -2 15
-4 15 -5 0 -1 7 -3 15 -5 8 -2 77 -22 153 -44 76 -23 148 -43 160 -46 12 -2
58 -14 102 -25 106 -26 118 -26 275 16 74 19 142 37 150 39 113 27 614 194
705 235 11 5 94 40 185 78 168 71 426 195 580 278 116 63 334 187 340 194 3 3
48 32 100 64 157 98 437 296 570 403 349 281 591 517 827 807 48 59 195 261
234 321 79 121 135 209 142 225 4 8 23 42 42 75 178 305 369 777 450 1112 45
183 74 325 90 438 3 22 10 65 15 95 5 30 12 87 16 125 3 39 8 84 10 100 14
119 17 648 16 3240 0 1612 -1 2936 -1 2943 -1 9 -936 12 -4639 12 l-4639 0 0
-1535z"/>
</g>
</svg>
